﻿{
  "Routes": [
    {
      "UseServiceDiscovery": false,
      "DownstreamPathTemplate": "/{url}",
      "DownstreamScheme": "http",
      "DownStreamHostAndPorts": [
        {
          "Host": "localhost",
          "Port": "48001"
        }
      ],
      "UpstreamPathTemplate": "/api/{url}",
      "UpstreamHttpMethod": [ "Get", "Post", "Put", "Delete" ],
      "RateLimitOptions": {
        "ClientWhitelist": [],
        "EnableRateLimiting": true,
        "Period": "4s",
        "PeriodTimespan": 1,
        "Limit": 3
      },
      "ReRoutesCaseSensitive": false
    }
  ],
  "GlobalConfiguration": {
    "BaseUrl": "http://localhost:4000",
    //"ServiceDiscoveryProvider": {
    //  "Host": "consulService",
    //  "Port": 8500,
    //  "Type": "Consul"
    //},
    "RateLimitOptions": {
      "QuotaExceededMessage": "your access is limited!",
      "HttpStatusCode": 999
    }
  }
}